…
# review the types of matches achieved
table(spain_cap_manifestos$politicalparty, spain_cap_manifestos$jnry_match)
#>       
#>        exact heuristic
#>   PP       0      4155
#>   PSOE 12125         0

# see Wikipedia links for the more uncertain 'heuristic' matches
spain_cap_manifestos %>% 
  dplyr::filter(jnry_match %in% 'heuristic') %>% 
  dplyr::select(politicalparty, partyfacts_name, wikipedia)
#> # A tibble: 4,155 × 3
#>    politicalparty partyfacts_name wikipedia                                     
#>    <chr>          <chr>           <chr>                                         
#>  1 PP             AP/PP           https://en.wikipedia.org/wiki/People%27s_Part…
#>  2 PP             AP/PP           https://en.wikipedia.org/wiki/People%27s_Part…
#>  3 PP             AP/PP           https://en.wikipedia.org/wiki/People%27s_Part…
#>  4 PP             AP/PP           https://en.wikipedia.org/wiki/People%27s_Part…
#>  5 PP             AP/PP           https://en.wikipedia.org/wiki/People%27s_Part…
#>  6 PP             AP/PP           https://en.wikipedia.org/wiki/People%27s_Part…
#>  7 PP             AP/PP           https://en.wikipedia.org/wiki/People%27s_Part…
#>  8 PP             AP/PP           https://en.wikipedia.org/wiki/People%27s_Part…
#>  9 PP             AP/PP           https://en.wikipedia.org/wiki/People%27s_Part…
#> 10 PP             AP/PP           https://en.wikipedia.org/wiki/People%27s_Part…
#> # … with 4,145 more rows
```
…
# count of flights by week & flight origin
nycf %>% 
  aggregate_time(time = 'arrival', 
                 grouping_vars = 'origin',
                 granularity = 'week', 
                 aggregation = 'count')
#> # A tibble: 157 × 3
#>    origin jnry_week jnry_count
#>    <chr>  <chr>          <int>
#>  1 EWR    2013-W01        2459
#>  2 EWR    2013-W02        2217
#>  3 EWR    2013-W03        2183
#>  4 EWR    2013-W04        2177
#>  5 EWR    2013-W05        2058
#>  6 EWR    2013-W06        1879
#>  7 EWR    2013-W07        2236
#>  8 EWR    2013-W08        2273
#>  9 EWR    2013-W09        2293
#> 10 EWR    2013-W10        2156
#> # … with 147 more rows
…
# minimum of all numeric variables by quarter & flight origin & flight carrier
nycf %>% 
  aggregate_time(time = 'arrival', 
                 grouping_vars = c('origin', 'carrier'),
                 granularity = 'quarter', 
                 aggregation = 'max')
#> # A tibble: 137 × 17
#>    origin carrier jnry_quarter year_max month_max day_max dep_time_max
#>    <chr>  <chr>   <chr>           <int>     <int>   <int>        <int>
#>  1 EWR    9E      2013-Q1          2013         3      31         1939
#>  2 EWR    9E      2013-Q2          2013         6      31         2045
#>  3 EWR    9E      2013-Q3          2013         9      31         2100
#>  4 EWR    9E      2013-Q4          2013        12      31         1930
#>  5 EWR    AS      2013-Q1          2013         3      31         2157
#>  6 EWR    AS      2013-Q2          2013         6      31         2205
#>  7 EWR    AS      2013-Q3          2013         9      31         1958
#>  8 EWR    AS      2013-Q4          2013        12      31         2101
#>  9 EWR    B6      2013-Q1          2013         3      31         2359
#> 10 EWR    B6      2013-Q2          2013         6      31         2355
#> # … with 127 more rows, and 10 more variables: sched_dep_time_max <int>,
#> #   dep_delay_max <dbl>, arr_time_max <int>, sched_arr_time_max <int>,
#> #   arr_delay_max <dbl>, flight_max <int>, air_time_max <dbl>,
#> #   distance_max <dbl>, hour_max <dbl>, minute_max <dbl>
…
